<svg width="483" height="281" viewBox="0 0 483 281" fill="none" xmlns="http://www.w3.org/2000/svg">
<g clip-path="url(#clip0_156_705)">
<path d="M39.2782 280.188C25.505 280.2 13.206 271.857 8.53638 259.335C-1.47713 232.378 -10.2992 182.443 28.9066 128.43C72.2574 68.7072 158.979 6.96653 219.978 0.641503C315.539 -9.26236 342.249 98.4097 385.126 123.465C422.172 145.113 475.821 177.575 482.834 245.422C484.64 262.789 471.535 278.283 453.566 280.028C452.485 280.133 451.4 280.186 450.312 280.186L39.2782 280.188Z" fill="#F3F5FD"/>
<path d="M44.0576 278.373C35.8585 275.832 27.9036 272.513 20.6555 263.223C19.1681 261.319 17.7705 258.88 18.5856 256.601C19.1991 254.886 20.9738 253.787 22.7771 253.507C23.4487 253.41 24.1295 253.391 24.8055 253.452C24.8088 253.452 24.8121 253.454 24.8134 253.452C25.8521 253.558 26.8789 253.759 27.8809 254.052L28.1673 254.135C32.9511 255.494 37.5081 257.552 41.6909 260.241C42.07 260.483 42.5196 260.589 42.9666 260.542C43.4137 260.496 43.8319 260.3 44.1532 259.986C44.4746 259.672 44.6803 259.258 44.7368 258.812C44.7933 258.367 44.6973 257.915 44.4645 257.531C44.0378 256.834 43.5412 256.182 42.9825 255.586C42.1586 254.724 41.2557 253.941 40.2859 253.248C38.9972 252.308 37.6216 251.468 36.2758 250.611C31.2726 247.425 26.5327 243.844 22.1015 239.902C18.9387 237.086 15.8455 233.96 14.3424 230C13.6515 228.18 13.3373 226.08 14.1611 224.315C15.5206 221.418 19.3717 220.606 22.5208 221.208C28.039 222.264 32.4474 226.308 36.3565 230.339C39.5983 233.688 43.2304 237.396 47.888 237.602C48.682 237.676 49.4804 237.516 50.1843 237.141C51.5127 236.337 51.8543 234.473 51.3807 232.993C50.9071 231.513 49.8117 230.331 48.7536 229.195C42.607 222.601 36.5569 215.742 32.5649 207.662C28.573 199.582 26.8046 190.044 29.5786 181.466C30.392 178.958 31.6141 176.518 33.5204 174.697C35.4267 172.875 38.1001 171.732 40.7172 172.081C44.2828 172.55 46.9682 175.559 48.7747 178.664C54.9843 189.322 54.6047 202.381 56.3537 214.589C56.8434 218.007 57.5542 221.512 59.5909 224.325C59.7787 224.596 60.0224 224.823 60.3054 224.991C61.9812 225.961 63.4851 224.005 64.114 222.345C66.5978 215.778 67.2187 208.268 71.666 202.833C73.3633 200.764 75.7643 199.035 78.4402 199.051C81.7085 199.074 84.5069 201.803 85.4607 204.928C86.4145 208.053 85.8436 211.448 84.8219 214.552C82.9251 220.306 79.5256 225.477 75.5196 230.021C73.4084 232.421 71.0194 234.844 70.3864 237.974C70.1924 239.038 70.2736 240.133 70.6223 241.157C70.971 242.181 71.5756 243.098 72.3789 243.823C72.7544 244.15 73.1917 244.398 73.6648 244.552C74.138 244.707 74.6374 244.765 75.1334 244.723C76.2064 244.625 77.1768 244.078 78.1119 243.546C78.5048 243.323 78.8985 243.096 79.2946 242.874C80.8567 241.985 82.419 241.095 83.9816 240.204C87.9536 237.938 92.7499 235.624 96.8871 237.574C98.9983 238.572 100.382 240.533 101.032 242.783C101.615 244.825 101.615 246.99 101.032 249.032C99.7998 253.279 92.032 265.098 88.8283 268.146C85.0873 271.707 72.1135 287.064 44.0576 278.373Z" fill="#8DDBE0"/>
<path d="M378.506 3.17236H121.395V189.309H378.506V3.17236Z" fill="#DEE8F5"/>
<path d="M378.506 3.17236H121.395V18.5053H378.506V3.17236Z" fill="#C1D8ED"/>
<path d="M369.895 14.6862C372.02 14.6862 373.743 12.9638 373.743 10.8392C373.743 8.71455 372.02 6.99219 369.895 6.99219C367.77 6.99219 366.047 8.71455 366.047 10.8392C366.047 12.9638 367.77 14.6862 369.895 14.6862Z" fill="white"/>
<path d="M175.405 41.2827H141.368V75.3089H175.405V41.2827Z" fill="white"/>
<path d="M221.187 41.2827H187.15V75.3089H221.187V41.2827Z" fill="white"/>
<path d="M266.969 41.2827H232.932V75.3089H266.969V41.2827Z" fill="white"/>
<path d="M312.751 41.2827H278.714V75.3089H312.751V41.2827Z" fill="white"/>
<path d="M175.405 86.6338H141.368V120.66H175.405V86.6338Z" fill="white"/>
<path d="M221.187 86.6338H187.15V120.66H221.187V86.6338Z" fill="#0CBC8B"/>
<path d="M266.969 86.6338H232.932V120.66H266.969V86.6338Z" fill="white"/>
<path d="M312.751 86.6338H278.714V120.66H312.751V86.6338Z" fill="white"/>
<path d="M175.405 131.985H141.368V166.011H175.405V131.985Z" fill="white"/>
<path d="M221.187 131.985H187.15V166.011H221.187V131.985Z" fill="white"/>
<path d="M266.969 131.985H232.932V166.011H266.969V131.985Z" fill="white"/>
<path d="M312.751 131.985H278.714V166.011H312.751V131.985Z" fill="white"/>
<path d="M358.534 41.2827H324.497V75.3089H358.534V41.2827Z" fill="white"/>
<path d="M358.534 86.6338H324.497V120.66H358.534V86.6338Z" fill="white"/>
<path d="M358.534 131.985H324.497V166.011H358.534V131.985Z" fill="white"/>
<path d="M166.951 276.523L158.318 275.498C158.707 272.231 159.146 268.308 159.175 267.664C159.175 267.705 159.175 267.739 159.175 267.765H167.869C167.867 268.025 167.867 268.818 166.951 276.523Z" fill="#E98862"/>
<path d="M132.311 277.562L123.618 277.534C123.618 277.534 123.647 268.56 123.647 267.765H132.34C132.34 268.562 132.311 277.562 132.311 277.562Z" fill="#E98862"/>
<path d="M170.158 273.519C169.439 255.307 169.395 236.178 169.169 217.918C166.18 198.222 164.608 176.62 160.917 157.064L160.807 157.096L160.484 154.891L128.99 152.948L127.765 173.515H127.882C126.297 201.069 123.232 245.363 121.378 273.286L136.64 274.575C139.366 247.114 143.397 203.365 145.86 176.299C148.563 190.09 151.526 205.621 153.926 219.576C154.452 237.403 154.891 255.981 154.843 273.779L170.158 273.519Z" fill="#262626"/>
<path d="M142.879 280.924C143.103 280.923 143.324 280.878 143.53 280.791C143.735 280.705 143.922 280.579 144.08 280.42C144.237 280.262 144.361 280.074 144.445 279.867C144.53 279.66 144.573 279.439 144.572 279.216C144.572 279.174 144.572 279.133 144.567 279.092C144.542 278.769 144.425 278.46 144.23 278.201C144.035 277.942 143.77 277.744 143.466 277.631L133.348 274.244C133.152 274.179 132.944 274.157 132.739 274.18C132.534 274.202 132.336 274.269 132.159 274.376C130.768 275.341 129.104 275.834 127.411 275.783C126.093 275.689 124.828 275.227 123.76 274.449C123.666 274.372 123.553 274.324 123.432 274.309C123.311 274.294 123.189 274.314 123.08 274.366C122.97 274.418 122.877 274.5 122.812 274.603C122.748 274.705 122.713 274.824 122.714 274.946V279.892C122.714 280.186 122.831 280.468 123.038 280.676C123.246 280.883 123.528 281 123.822 281H123.827L142.879 280.924Z" fill="#C1D8ED"/>
<path d="M177.543 280.924C177.766 280.923 177.987 280.878 178.193 280.791C178.399 280.705 178.586 280.579 178.743 280.42C178.9 280.262 179.024 280.074 179.109 279.867C179.193 279.66 179.236 279.439 179.235 279.216C179.235 279.174 179.235 279.133 179.23 279.092C179.205 278.768 179.088 278.459 178.893 278.2C178.698 277.942 178.433 277.744 178.129 277.631L168.011 274.243C167.815 274.178 167.607 274.156 167.402 274.179C167.197 274.202 166.999 274.269 166.822 274.375C165.431 275.34 163.767 275.833 162.075 275.782C160.757 275.688 159.491 275.226 158.423 274.449C158.329 274.372 158.216 274.323 158.095 274.308C157.974 274.293 157.852 274.313 157.743 274.365C157.633 274.417 157.54 274.5 157.476 274.602C157.411 274.705 157.377 274.824 157.377 274.945V279.891C157.377 280.185 157.494 280.467 157.702 280.675C157.91 280.883 158.192 281 158.486 281H158.49L177.543 280.924Z" fill="#C1D8ED"/>
<path d="M144.322 91.333L142.905 91.8089C142.905 91.8089 143.09 96.8345 143.613 99.3912C144.137 101.948 144.545 105.279 146.173 105.645C148.332 106.131 150.908 106.31 152.78 105.641C154.195 105.136 154.413 100.332 154.551 97.9593C154.613 96.9053 154.478 96.9972 153.425 97.0692C151.269 97.2173 147.916 97.3311 146.681 96.7381C144.801 95.8359 144.322 91.333 144.322 91.333Z" fill="#0F1011"/>
<path d="M139.081 110.167C139.081 110.167 142.283 108.47 141.568 99.7565L148.181 98.5303C148.181 98.5303 147.436 106.343 150.784 108.823L139.081 110.167Z" fill="#E98862"/>
<path d="M137.815 96.3775C138.273 99.0211 139.716 101.525 142.049 102.378C144.818 103.392 146.869 103.461 150.062 103.461C154.419 103.461 154.275 98.918 154.398 94.3402C154.522 89.7466 154.494 85.8636 152.772 84.2621C149.336 81.0652 138.907 82.0407 137.68 87.3874C137.045 90.1526 137.379 93.861 137.815 96.3775Z" fill="#E98862"/>
<path d="M135.717 92.9771C136.353 96.9958 137.187 98.2634 138.39 100.184C139.102 101.385 140.06 102.423 141.199 103.23C142.086 103.8 150.784 103.682 152.286 103.463C154.501 103.139 154.837 96.8286 154.441 96.8286C153.949 96.8286 153.831 96.8154 153.277 96.8154C152.265 96.8154 152.164 90.7871 151.973 88.1199C152.128 88.0983 152.285 88.0874 152.442 88.0872C157.205 88.0856 134.649 86.2308 135.717 92.9771Z" fill="#0F1011"/>
<path d="M151.12 96.9445C150.471 96.961 149.841 96.7288 149.359 96.2956C148.876 95.8623 148.577 95.2609 148.524 94.6146C148.491 94.2883 148.523 93.9588 148.618 93.6448C148.712 93.3308 148.868 93.0385 149.075 92.7846C149.283 92.5307 149.539 92.3202 149.828 92.1652C150.117 92.0101 150.433 91.9134 150.76 91.8808C150.782 91.8783 150.805 91.8767 150.827 91.875C150.886 93.6793 150.979 95.5784 151.12 96.9445Z" fill="#E98862"/>
<path d="M135.717 92.9773C135.717 92.9773 133.484 81.6883 144.275 80.645C155.066 79.6018 154.417 89.6877 154.417 89.6877L150.136 91.8711C150.136 91.8711 145.357 93.1817 135.717 92.9773Z" fill="#262626"/>
<path d="M137.256 91.664C137.23 90.6828 137.594 89.7314 138.269 89.0186C138.944 88.3059 139.875 87.8902 140.856 87.8628C141.838 87.8354 142.79 88.1985 143.504 88.8724C144.218 89.5464 144.635 90.476 144.664 91.4571" fill="#0F1011"/>
<path d="M150.138 91.8688C150.138 91.8688 153.659 90.6819 155.544 89.5695C157.55 88.3847 160.263 86.2323 160.249 85.5917C160.224 84.4744 156.321 84.1628 153.132 84.289L153.157 84.3366C153.688 85.3888 153.836 86.5932 153.576 87.7428C153.315 88.8924 152.662 89.9153 151.728 90.6355L150.138 91.8688Z" fill="#262626"/>
<path d="M119.72 167.859C119.72 169.093 120.371 173.215 119.323 173.51C118.695 173.687 117.953 170.613 117.953 170.613" fill="#E98862"/>
<path d="M114.775 167.212C114.775 167.212 111.354 175.535 115.256 180.317C115.355 180.439 115.489 180.528 115.64 180.572C115.79 180.617 115.951 180.615 116.1 180.567C116.25 180.519 116.382 180.427 116.478 180.303C116.574 180.179 116.631 180.029 116.641 179.872C116.831 176.648 117.481 170.025 119.608 170.799V165.598" fill="#E98862"/>
<path d="M191.916 122.864C191.916 122.864 196.694 119.07 197.032 117.707C197.37 116.344 194.005 113.664 194.005 113.664C194.005 113.664 198.479 109.153 197.587 108.502C196.534 107.73 191.342 114.288 191.342 114.288C191.342 114.288 192.076 111.929 191.162 111.774C190.787 111.71 190.489 112.079 189.901 113.749C189.231 115.652 187.892 118.514 187.892 118.514L191.916 122.864Z" fill="#E98862"/>
<path d="M186.885 117.819L172.753 133.714L161.7 113.933C160.653 110.808 158.27 108.715 153.411 108.507C151.749 108.435 143.639 108.424 137.701 108.424C133.712 108.424 130.437 109.647 128.545 111.538C127.593 112.476 126.88 113.63 126.467 114.902L126.41 114.881L116.908 140.711C116.801 141.001 116.725 141.301 116.679 141.606L112.844 167.435L121.773 168.759L125.54 143.389L129.378 132.958C129.777 134.561 129.996 136.204 130.029 137.856C130.029 146.547 126.096 150.444 126.386 154.906C126.841 161.918 160.923 160.261 162.659 156.278C164.447 152.171 160.818 149.64 160.977 136.203C160.994 134.741 161.107 133.212 161.263 131.654L167.969 143.656C168.32 144.284 168.817 144.82 169.417 145.217C170.018 145.615 170.704 145.863 171.42 145.941C172.136 146.019 172.86 145.924 173.532 145.665C174.204 145.406 174.804 144.99 175.283 144.452L193.863 122.726L186.885 117.819Z" fill="#367CFF"/>
<path d="M401.239 215.467L388.203 279.026C388.12 279.358 387.928 279.652 387.658 279.862C387.388 280.073 387.055 280.187 386.713 280.187V280.187C386.48 280.187 386.249 280.134 386.039 280.032C385.829 279.929 385.645 279.78 385.502 279.596C385.358 279.412 385.258 279.198 385.21 278.969C385.161 278.741 385.166 278.504 385.223 278.278L398.445 213.985L401.239 215.467Z" fill="#C1D8ED"/>
<path d="M431.865 215.366L444.901 278.923C444.984 279.255 445.176 279.55 445.446 279.76C445.716 279.971 446.049 280.085 446.391 280.085V280.085C446.625 280.085 446.855 280.032 447.065 279.93C447.275 279.827 447.459 279.678 447.603 279.494C447.746 279.31 447.846 279.096 447.894 278.867C447.943 278.639 447.938 278.402 447.881 278.176L434.66 213.883L431.865 215.366Z" fill="#C1D8ED"/>
<path d="M445.566 209.251H387.538C386.071 209.251 384.881 210.44 384.881 211.907V217.753C384.881 219.22 386.071 220.409 387.538 220.409H445.566C447.033 220.409 448.223 219.22 448.223 217.753V211.907C448.223 210.44 447.033 209.251 445.566 209.251Z" fill="#DEE8F5"/>
<path d="M429.072 179.855C427.337 179.287 425.557 179.924 423.854 181.22C426.097 175.556 427.023 170.44 423.188 170.21C420.503 170.048 418.447 172.107 416.885 175.034C416.336 169.888 414.919 166.05 411.744 167.323C408.258 168.719 407.728 173.507 408.257 178.516C406.721 175.957 405.069 174.531 403.567 176.033C399.087 180.511 410.083 193.133 410.083 193.133H412.816L414.374 194.825C414.059 195.491 413.886 195.889 413.886 195.889L415.866 199.916C415.866 199.916 436.272 182.211 429.072 179.855Z" fill="#8DDBE0"/>
<path d="M424.176 208.934H408.719L406.131 190.896H426.763L424.176 208.934Z" fill="#C1D8ED"/>
</g>
<defs>
<clipPath id="clip0_156_705">
<rect width="483" height="281" fill="white"/>
</clipPath>
</defs>
</svg>
