<svg width="370" height="269" viewBox="0 0 370 269" fill="none" xmlns="http://www.w3.org/2000/svg">
<g clip-path="url(#clip0_156_597)">
<path d="M319.155 228.936L39.566 220.432L115.843 39.9102L329.905 86.2636L329.822 87.3385L319.155 228.936ZM43.264 218.063L316.856 226.384L327.263 88.2302L117.329 42.7701L43.264 218.063Z" fill="#F3F5FD"/>
<path d="M195.95 151.573L115.585 42.0729L117.589 40.6069L196.739 148.451L328.051 86.1266L329.118 88.3668L195.95 151.573Z" fill="#F3F5FD"/>
<path d="M317.336 228.705L196.24 151.418L41.9226 220.38L40.9075 218.116L196.449 148.606L318.674 226.615L317.336 228.705Z" fill="#F3F5FD"/>
<path d="M116.587 82.6803C139.46 82.6803 158.002 64.1717 158.002 41.3402C158.002 18.5086 139.46 0 116.587 0C93.7142 0 75.172 18.5086 75.172 41.3402C75.172 64.1717 93.7142 82.6803 116.587 82.6803Z" fill="#DEE8F5"/>
<path d="M328.585 128.588C351.458 128.588 370 110.079 370 87.2474C370 64.4158 351.458 45.9072 328.585 45.9072C305.712 45.9072 287.17 64.4158 287.17 87.2474C287.17 110.079 305.712 128.588 328.585 128.588Z" fill="#DEE8F5"/>
<path d="M196.344 191.352C219.217 191.352 237.759 172.844 237.759 150.012C237.759 127.18 219.217 108.672 196.344 108.672C173.471 108.672 154.929 127.18 154.929 150.012C154.929 172.844 173.471 191.352 196.344 191.352Z" fill="#DEE8F5"/>
<path d="M41.4152 260.588C64.2882 260.588 82.8305 242.079 82.8305 219.248C82.8305 196.416 64.2882 177.908 41.4152 177.908C18.5422 177.908 0 196.416 0 219.248C0 242.079 18.5422 260.588 41.4152 260.588Z" fill="#F3F5FD"/>
<path d="M318.005 269C340.878 269 359.42 250.492 359.42 227.66C359.42 204.828 340.878 186.32 318.005 186.32C295.132 186.32 276.59 204.828 276.59 227.66C276.59 250.492 295.132 269 318.005 269Z" fill="#DEE8F5"/>
<path d="M218.433 140.102C218.567 141.756 216.842 143.295 216.557 144.856C216.263 146.468 217.318 148.517 216.629 149.963C215.931 151.431 213.666 151.906 212.619 153.137C211.571 154.368 211.465 156.674 210.127 157.599C208.808 158.509 206.613 157.8 205.066 158.35C203.571 158.881 202.327 160.831 200.67 160.964C199.013 161.098 197.471 159.376 195.91 159.091C194.295 158.798 192.243 159.851 190.793 159.164C189.323 158.466 188.846 156.206 187.614 155.16C186.381 154.115 184.07 154.01 183.144 152.673C182.23 151.356 182.942 149.165 182.391 147.622C181.858 146.129 179.906 144.887 179.772 143.233C179.639 141.579 181.364 140.04 181.649 138.482C181.943 136.87 180.887 134.821 181.576 133.374C182.275 131.907 184.539 131.431 185.587 130.201C186.634 128.971 186.74 126.663 188.078 125.739C189.397 124.829 191.593 125.537 193.139 124.988C194.634 124.456 195.878 122.507 197.535 122.374C199.192 122.24 200.734 123.962 202.298 124.246C203.913 124.54 205.965 123.486 207.414 124.174C208.884 124.871 209.361 127.132 210.594 128.177C211.827 129.223 214.138 129.328 215.064 130.664C215.975 131.981 215.266 134.172 215.816 135.716C216.347 137.208 218.3 138.448 218.433 140.102Z" fill="#0F1011"/>
<path d="M191.788 159.547C191.788 159.547 195.281 157.702 194.51 148.211L201.725 146.882C201.725 146.882 200.907 155.39 204.554 158.095L191.788 159.547Z" fill="#E98862"/>
<g opacity="0.15">
<path d="M203.077 156.315L197.089 151.733L201.795 151.688C201.93 153.297 202.365 154.866 203.077 156.315V156.315Z" fill="black"/>
</g>
<path d="M190.42 144.528C190.917 147.408 192.491 150.136 195.032 151.068C197.805 152.169 200.805 152.576 203.771 152.254C211.668 151.615 210.122 133.69 206.376 130.205C202.63 126.72 191.625 128.915 190.281 134.737C189.587 137.748 189.947 141.787 190.42 144.528Z" fill="#E98862"/>
<path d="M201.719 142.319C202.08 142.319 202.373 142.027 202.373 141.666C202.373 141.306 202.08 141.014 201.719 141.014C201.358 141.014 201.065 141.306 201.065 141.666C201.065 142.027 201.358 142.319 201.719 142.319Z" fill="#0F1011"/>
<path d="M206.881 141.902C207.242 141.902 207.535 141.609 207.535 141.249C207.535 140.888 207.242 140.596 206.881 140.596C206.52 140.596 206.227 140.888 206.227 141.249C206.227 141.609 206.52 141.902 206.881 141.902Z" fill="#0F1011"/>
<path d="M208.016 139.858H208.012L206.279 139.835C206.239 139.834 206.199 139.826 206.162 139.81C206.125 139.794 206.091 139.771 206.063 139.742C206.035 139.713 206.013 139.679 205.998 139.642C205.983 139.604 205.975 139.564 205.976 139.524C205.976 139.483 205.984 139.443 206 139.406C206.016 139.369 206.039 139.335 206.068 139.307C206.097 139.279 206.131 139.257 206.169 139.242C206.206 139.227 206.247 139.22 206.287 139.221L208.02 139.244C208.1 139.248 208.175 139.282 208.23 139.34C208.285 139.397 208.315 139.474 208.315 139.553C208.314 139.633 208.283 139.709 208.227 139.766C208.172 139.823 208.096 139.856 208.016 139.858V139.858Z" fill="#0F1011"/>
<path d="M200.309 140.482C200.233 140.482 200.16 140.455 200.104 140.405C200.048 140.355 200.012 140.286 200.003 140.211C199.994 140.136 200.013 140.061 200.056 139.999C200.1 139.938 200.164 139.894 200.237 139.877L201.947 139.468C201.986 139.458 202.027 139.455 202.068 139.461C202.108 139.467 202.147 139.481 202.182 139.502C202.217 139.523 202.248 139.55 202.272 139.583C202.296 139.616 202.314 139.654 202.323 139.693C202.333 139.733 202.334 139.774 202.327 139.815C202.321 139.855 202.306 139.893 202.284 139.928C202.263 139.963 202.234 139.992 202.201 140.016C202.167 140.039 202.129 140.056 202.089 140.065L200.381 140.473C200.357 140.479 200.333 140.482 200.309 140.482V140.482Z" fill="#0F1011"/>
<path d="M202.017 146.81C202.017 146.81 204.432 147.067 206.125 146.479C206.125 146.479 206.111 148.067 204.199 148.222C202.288 148.377 202.017 146.81 202.017 146.81Z" fill="white"/>
<path d="M195.741 137.073C196.214 143.822 195.47 150.601 193.543 157.087C193.543 157.087 188.038 147.611 187.187 139.721C186.388 132.325 191.852 127.963 195.541 127.143C209.562 124.027 210.57 134.25 210.57 134.25C208.016 139.551 194.223 139.528 194.223 139.528" fill="#0F1011"/>
<path d="M198.413 144.478C198.45 145.197 198.204 145.902 197.729 146.444C197.253 146.985 196.585 147.32 195.866 147.379C195.147 147.437 194.434 147.213 193.877 146.755C193.321 146.297 192.965 145.641 192.885 144.926C192.849 144.562 192.887 144.195 192.996 143.847C193.105 143.498 193.284 143.175 193.521 142.896C193.758 142.618 194.048 142.39 194.375 142.226C194.703 142.062 195.059 141.966 195.425 141.943C197.402 141.879 198.29 142.954 198.413 144.478Z" fill="#E98862"/>
<g opacity="0.15">
<path d="M204.621 145.292C204.567 145.292 204.514 145.272 204.473 145.237C204.432 145.202 204.406 145.153 204.398 145.1C204.389 145.046 204.401 144.992 204.43 144.946C204.459 144.901 204.503 144.867 204.554 144.851L205.886 144.444L204.957 142.374C204.944 142.347 204.938 142.318 204.937 142.288C204.936 142.258 204.941 142.229 204.952 142.201C204.963 142.173 204.979 142.148 204.999 142.126C205.02 142.105 205.044 142.087 205.071 142.075C205.099 142.063 205.128 142.057 205.158 142.056C205.187 142.055 205.217 142.06 205.245 142.071C205.273 142.081 205.298 142.097 205.32 142.118C205.341 142.138 205.359 142.163 205.371 142.19L206.406 144.492C206.419 144.522 206.426 144.553 206.426 144.585C206.426 144.617 206.419 144.649 206.406 144.678C206.392 144.707 206.373 144.733 206.349 144.754C206.325 144.775 206.297 144.791 206.266 144.8L204.69 145.282C204.668 145.288 204.644 145.292 204.621 145.292Z" fill="black"/>
</g>
<path d="M137.246 77.1793L134.785 70.7715C134.826 73.2529 135.03 75.7289 135.394 78.1838C129.873 80.9842 123.795 82.5167 117.605 82.6691C111.414 82.8214 105.268 81.5898 99.6157 79.0644C100.551 76.1717 101.025 73.1499 101.019 70.1101C100.999 68.663 100.835 67.2215 100.531 65.8066L96.5924 77.5513C93.5664 75.8843 90.7614 73.8455 88.243 71.4826L97.3668 44.2973L97.4331 44.3221C97.8988 43.2477 98.5666 42.2724 99.4003 41.449C101.467 39.3902 105.029 38.0632 109.373 38.0591C109.696 40.585 125.074 40.5932 125.193 38.117C125.777 38.1252 126.237 38.1335 126.519 38.1459C133.219 38.4353 135.605 41.9988 136.185 46.972L145.421 71.0155C142.962 73.4004 140.216 75.4709 137.246 77.1793V77.1793Z" fill="#9EBCEA"/>
<path d="M125.192 38.1154C125.075 40.5958 123.725 44.2408 119.558 44.5157C114.004 44.8807 109.696 40.5855 109.369 38.0571H109.383C114.853 38.0571 122.005 38.0662 125.192 38.1154Z" fill="#E98862"/>
<path d="M110.5 40.5507C110.5 40.5507 113.992 38.7032 113.212 29.2127L120.426 27.8774C120.426 27.8774 119.615 36.3861 123.265 39.0877L110.5 40.5507Z" fill="#E98862"/>
<g opacity="0.15">
<path d="M121.786 37.3087L115.794 32.7324L120.501 32.6836C120.637 34.2918 121.073 35.8605 121.786 37.3087V37.3087Z" fill="black"/>
</g>
<path d="M109.119 25.5326C109.618 28.4119 111.192 31.1387 113.737 32.0685C116.51 33.1672 119.51 33.572 122.476 33.2475C130.373 32.6009 128.812 14.6775 125.061 11.1962C121.31 7.71499 110.309 9.91925 108.97 15.7437C108.28 18.7541 108.644 22.7922 109.119 25.5326Z" fill="#E98862"/>
<path d="M127.668 11.815C127.432 11.4416 127.102 11.1369 126.711 10.9316C123.204 9.02788 116.705 8.3685 113.582 9.30155C109.961 10.383 105.42 13.4137 106.585 20.761C106.634 21.0703 106.687 21.3683 106.742 21.661C105.599 21.4666 104.423 21.59 103.346 22.0177C102.268 22.4455 101.328 23.161 100.631 24.0861C99.9331 25.0112 99.5039 26.11 99.3902 27.2623C99.2765 28.4146 99.4827 29.576 99.9861 30.6191C100.49 31.6622 101.271 32.547 102.244 33.1764C103.218 33.8059 104.346 34.1557 105.506 34.1877C106.666 34.2196 107.812 33.9325 108.819 33.3577C109.825 32.7828 110.655 31.9425 111.215 30.9287C111.752 31.3919 112.333 31.8029 112.948 32.156C113.38 32.4124 113.487 32.2036 113.635 31.7245C114.158 30.0522 114.67 23.437 114.262 18.6337L122.772 18.3402L124.254 14.1293L125.47 18.3402H128.369C128.753 16.0586 129.154 13.4724 127.668 11.815Z" fill="#0F1011"/>
<path d="M120.416 23.3148C120.777 23.3148 121.07 23.0225 121.07 22.662C121.07 22.3015 120.777 22.0093 120.416 22.0093C120.055 22.0093 119.762 22.3015 119.762 22.662C119.762 23.0225 120.055 23.3148 120.416 23.3148Z" fill="#0F1011"/>
<path d="M125.577 22.8919C125.938 22.8919 126.231 22.5997 126.231 22.2392C126.231 21.8787 125.938 21.5864 125.577 21.5864C125.216 21.5864 124.923 21.8787 124.923 22.2392C124.923 22.5997 125.216 22.8919 125.577 22.8919Z" fill="#0F1011"/>
<path d="M126.711 20.8474H126.707L124.974 20.8259C124.892 20.8248 124.815 20.7914 124.758 20.7332C124.701 20.6749 124.669 20.5964 124.67 20.515C124.675 20.4348 124.709 20.3592 124.767 20.3031C124.824 20.2471 124.901 20.2147 124.981 20.2124L126.714 20.2339C126.796 20.2343 126.874 20.2671 126.931 20.3249C126.988 20.3827 127.02 20.4609 127.02 20.5423C127.019 20.6237 126.987 20.7015 126.929 20.7587C126.871 20.8159 126.792 20.8478 126.711 20.8474V20.8474Z" fill="#0F1011"/>
<path d="M119.003 21.4784C118.928 21.4786 118.855 21.4511 118.798 21.4012C118.742 21.3513 118.706 21.2824 118.697 21.2076C118.688 21.1329 118.707 21.0575 118.75 20.9959C118.794 20.9342 118.858 20.8905 118.931 20.8732L120.64 20.4627C120.679 20.4532 120.72 20.4516 120.76 20.4578C120.8 20.4641 120.838 20.4781 120.873 20.4991C120.907 20.5202 120.937 20.5477 120.961 20.5803C120.984 20.6129 121.002 20.6498 121.011 20.689C121.021 20.7282 121.022 20.7688 121.016 20.8086C121.01 20.8484 120.996 20.8866 120.974 20.921C120.953 20.9553 120.926 20.9852 120.893 21.009C120.861 21.0327 120.824 21.0497 120.784 21.0592L119.076 21.4701C119.052 21.4757 119.027 21.4785 119.003 21.4784V21.4784Z" fill="#0F1011"/>
<path d="M117.012 24.2598C117.051 24.98 116.807 25.687 116.332 26.2305C115.857 26.774 115.188 27.111 114.468 27.17C113.748 27.2289 113.033 27.0052 112.476 26.5462C111.918 26.0873 111.562 25.4294 111.483 24.7125C111.447 24.3489 111.485 23.9818 111.594 23.633C111.703 23.2842 111.881 22.9609 112.118 22.6823C112.355 22.4037 112.645 22.1756 112.972 22.0114C113.299 21.8473 113.656 21.7505 114.021 21.7269C115.998 21.6624 116.887 22.7372 117.012 24.2598Z" fill="#E98862"/>
<g opacity="0.15">
<path d="M123.32 26.284C123.266 26.284 123.213 26.2646 123.172 26.2294C123.131 26.1942 123.105 26.1455 123.096 26.0921C123.088 26.0387 123.1 25.9843 123.129 25.9386C123.158 25.8929 123.202 25.8591 123.253 25.8433L124.584 25.4352L123.653 23.3662C123.641 23.339 123.634 23.3098 123.633 23.28C123.633 23.2503 123.638 23.2207 123.648 23.1929C123.659 23.1652 123.675 23.1398 123.695 23.1182C123.716 23.0966 123.74 23.0792 123.768 23.0671C123.795 23.0549 123.824 23.0483 123.854 23.0474C123.884 23.0466 123.913 23.0517 123.941 23.0623C123.969 23.0729 123.994 23.0889 124.016 23.1093C124.038 23.1297 124.055 23.1542 124.067 23.1814L125.103 25.4836C125.116 25.5127 125.123 25.5443 125.123 25.5763C125.123 25.6082 125.116 25.6398 125.103 25.6689C125.089 25.698 125.07 25.7239 125.046 25.745C125.022 25.7661 124.994 25.7819 124.963 25.7912L123.389 26.274C123.367 26.2809 123.343 26.2842 123.32 26.284V26.284Z" fill="black"/>
</g>
<path d="M120.718 27.8048C120.718 27.8048 123.133 28.0591 124.826 27.4688C124.826 27.4688 124.813 29.0562 122.901 29.2129C120.99 29.3696 120.718 27.8048 120.718 27.8048Z" fill="white"/>
<path d="M337.844 91.5565C337.844 91.5565 334.352 89.7086 335.132 80.2186L327.918 78.8833C327.918 78.8833 328.729 87.3919 325.079 90.0935L337.844 91.5565Z" fill="#E98862"/>
<g opacity="0.15">
<path d="M326.559 88.3146L332.552 83.7382L327.845 83.6895C327.709 85.2977 327.273 86.8663 326.559 88.3146V88.3146Z" fill="black"/>
</g>
<path d="M339.225 76.5385C338.726 79.4178 337.151 82.1442 334.607 83.0744C331.834 84.1731 328.834 84.5778 325.868 84.2534C317.971 83.6068 319.532 65.6834 323.283 62.2017C327.034 58.72 338.035 60.9251 339.374 66.7491C340.064 69.7599 339.7 73.798 339.225 76.5385Z" fill="#E98862"/>
<path d="M317.757 60.5383C317.757 58.1575 320.725 54.2567 328.644 59.6359L328.652 59.6408C330.709 59.5836 332.764 59.808 334.761 60.3076C336.191 60.7202 337.527 61.4059 338.695 62.3267V62.3267C340.899 64.1118 342.505 67.0477 341.757 71.7671C340.456 79.9674 337.091 82.1559 335.395 83.1617C334.963 83.418 334.857 83.2092 334.708 82.7305C334.238 80.96 333.902 79.1568 333.702 77.3361C333.444 75.4406 331.74 74.2393 331.946 71.9722C332.018 71.1797 333.297 68.2751 329.34 68.2433C327.115 68.2255 327.947 68.3136 325.571 68.3136C325.233 68.3136 324.934 68.2983 324.66 68.2722H324.657C316.457 68.2751 317.757 62.9195 317.757 60.5383Z" fill="#0F1011"/>
<path d="M331.332 75.2656C331.293 75.9858 331.537 76.6926 332.012 77.2359C332.487 77.7792 333.156 78.1162 333.876 78.1751C334.596 78.234 335.311 78.0102 335.868 77.5513C336.425 77.0925 336.782 76.4347 336.861 75.7179C336.897 75.3544 336.859 74.9873 336.75 74.6386C336.641 74.2898 336.463 73.9666 336.226 73.688C335.989 73.4095 335.699 73.1814 335.372 73.0172C335.045 72.8531 334.688 72.7564 334.323 72.7327C332.346 72.6682 331.457 73.7418 331.332 75.2656Z" fill="#E98862"/>
<path d="M332.55 66.4829L334.593 67.2295C334.593 67.2295 333.869 77.4145 333.297 80.1987C332.725 82.983 331.126 84.7958 329.314 84.9529C326.531 85.191 324.515 85.21 322.474 84.4816C320.172 83.6606 320.494 77.4951 320.494 77.4951C320.494 77.4951 327.901 78.2963 329.951 77.3136C332.001 76.331 332.55 66.4829 332.55 66.4829Z" fill="#0F1011"/>
<path d="M327.928 74.3207C328.29 74.3207 328.582 74.0284 328.582 73.6679C328.582 73.3074 328.29 73.0151 327.928 73.0151C327.567 73.0151 327.274 73.3074 327.274 73.6679C327.274 74.0284 327.567 74.3207 327.928 74.3207Z" fill="#0F1011"/>
<path d="M322.767 73.8978C323.128 73.8978 323.421 73.6056 323.421 73.245C323.421 72.8845 323.128 72.5923 322.767 72.5923C322.406 72.5923 322.113 72.8845 322.113 73.245C322.113 73.6056 322.406 73.8978 322.767 73.8978Z" fill="#0F1011"/>
<path d="M321.633 71.8537C321.552 71.8542 321.473 71.8224 321.415 71.7653C321.357 71.7081 321.324 71.6303 321.324 71.549C321.323 71.4676 321.355 71.3894 321.412 71.3315C321.47 71.2736 321.548 71.2407 321.629 71.2402L323.363 71.2183H323.367C323.448 71.2178 323.527 71.2496 323.585 71.3068C323.643 71.364 323.676 71.4418 323.676 71.5232C323.677 71.6045 323.645 71.6827 323.587 71.7406C323.53 71.7985 323.452 71.8313 323.371 71.8318L321.637 71.8537H321.633Z" fill="#0F1011"/>
<path d="M329.341 72.4843C329.316 72.4844 329.292 72.4816 329.268 72.476L327.56 72.0655C327.48 72.0465 327.412 71.9968 327.369 71.9274C327.327 71.858 327.314 71.7746 327.333 71.6955C327.352 71.6164 327.402 71.5481 327.471 71.5056C327.541 71.4631 327.624 71.4499 327.703 71.469L329.412 71.8795C329.485 71.8972 329.549 71.9409 329.592 72.0025C329.635 72.064 329.654 72.1391 329.645 72.2135C329.636 72.288 329.6 72.3566 329.544 72.4065C329.488 72.4564 329.416 72.484 329.341 72.4843V72.4843Z" fill="#0F1011"/>
<g opacity="0.15">
<path d="M325.024 77.2898C325.078 77.2898 325.131 77.2705 325.172 77.2352C325.213 77.2 325.24 77.1513 325.248 77.098C325.256 77.0446 325.244 76.9901 325.215 76.9445C325.187 76.8988 325.142 76.865 325.091 76.8491L323.76 76.4411L324.69 74.3741C324.713 74.32 324.713 74.2593 324.691 74.2049C324.67 74.1505 324.628 74.1067 324.574 74.0827C324.521 74.0588 324.46 74.0565 324.405 74.0765C324.35 74.0965 324.304 74.1371 324.279 74.1897L323.243 76.4919C323.23 76.5211 323.223 76.5527 323.224 76.5846C323.224 76.6165 323.23 76.6481 323.244 76.6772C323.257 76.7063 323.276 76.7323 323.3 76.7534C323.324 76.7745 323.352 76.7902 323.383 76.7995L324.957 77.282C324.979 77.2881 325.002 77.2908 325.024 77.2898V77.2898Z" fill="black"/>
</g>
<path d="M327.626 78.8111C327.626 78.8111 325.211 79.0654 323.518 78.4746C323.518 78.4746 323.531 80.0625 325.443 80.2188C327.354 80.375 327.626 78.8111 327.626 78.8111Z" fill="white"/>
<path d="M358.208 116.13C355.76 118.636 353.004 120.821 350.004 122.633L347.941 116.481C347.636 117.895 347.473 119.335 347.453 120.781C347.452 121.845 347.509 122.909 347.622 123.968C342.38 126.67 336.622 128.225 330.73 128.53C324.838 128.835 318.949 127.883 313.455 125.737C313.571 124.447 313.653 123.021 313.686 121.442L312.229 125.237C309.162 123.922 306.268 122.238 303.61 120.222L312.287 97.6383C312.867 92.6692 315.252 89.1057 321.949 88.8163C322.235 88.8039 322.691 88.7956 323.279 88.7874C323.395 91.2636 338.776 91.2554 339.099 88.7295C343.444 88.7336 347.005 90.0606 349.068 92.1235C349.904 92.9436 350.572 93.918 351.035 94.9925L351.106 94.9677L358.208 116.13Z" fill="#8DDBE0"/>
<path d="M323.278 88.7863C323.395 91.2667 324.746 94.9117 328.913 95.1866C334.467 95.5516 338.775 91.2564 339.101 88.728H339.088C333.618 88.728 326.466 88.7367 323.278 88.7863Z" fill="#E98862"/>
<path d="M332.344 209.274C332.413 202.572 329.759 198.42 326.162 196.139C322.612 193.89 311.48 191.931 307.26 200.098C304.506 205.428 305.593 207.333 304.813 215.869C304.033 224.406 301.035 225.301 297.996 235.647C295.612 243.763 308.966 248.072 320.532 247.699C332.099 247.327 339.429 244.771 340.1 237.429C341.063 226.892 332.208 222.407 332.344 209.274Z" fill="#0F1011"/>
<path d="M325.453 227.802C325.453 227.802 321.979 225.922 322.843 216.44L315.642 215.039C315.642 215.039 316.375 223.555 312.702 226.222L325.453 227.802Z" fill="#E98862"/>
<g opacity="0.15">
<path d="M314.197 224.457L320.231 219.936L315.525 219.844C315.374 221.451 314.923 223.015 314.197 224.457Z" fill="black"/>
</g>
<path d="M326.973 212.797C326.448 215.672 324.849 218.384 322.296 219.291C319.512 220.364 316.508 220.741 313.545 220.389C305.654 219.671 307.381 201.762 311.162 198.314C314.943 194.865 325.925 197.172 327.211 203.007C327.873 206.027 327.472 210.061 326.973 212.797Z" fill="#E98862"/>
<path d="M315.702 210.476C316.063 210.476 316.356 210.184 316.356 209.823C316.356 209.463 316.063 209.17 315.702 209.17C315.341 209.17 315.048 209.463 315.048 209.823C315.048 210.184 315.341 210.476 315.702 210.476Z" fill="#0F1011"/>
<path d="M310.545 210.006C310.906 210.006 311.199 209.713 311.199 209.353C311.199 208.992 310.906 208.7 310.545 208.7C310.184 208.7 309.891 208.992 309.891 209.353C309.891 209.713 310.184 210.006 310.545 210.006Z" fill="#0F1011"/>
<path d="M309.427 207.951C309.345 207.951 309.267 207.919 309.209 207.861C309.152 207.804 309.119 207.726 309.119 207.644C309.119 207.563 309.152 207.485 309.209 207.428C309.267 207.37 309.345 207.338 309.427 207.338L311.16 207.332C311.24 207.334 311.315 207.368 311.37 207.425C311.426 207.483 311.457 207.559 311.457 207.638C311.457 207.718 311.426 207.794 311.37 207.852C311.315 207.909 311.24 207.943 311.16 207.945L309.427 207.951V207.951Z" fill="#0F1011"/>
<path d="M317.128 208.652C317.103 208.652 317.077 208.649 317.053 208.643L315.348 208.217C315.269 208.198 315.201 208.147 315.159 208.077C315.117 208.007 315.105 207.924 315.125 207.845C315.144 207.766 315.195 207.698 315.265 207.656C315.335 207.615 315.419 207.602 315.498 207.622L317.203 208.048C317.276 208.066 317.339 208.11 317.382 208.172C317.424 208.234 317.443 208.309 317.433 208.383C317.424 208.457 317.388 208.526 317.332 208.575C317.276 208.625 317.203 208.652 317.128 208.652V208.652Z" fill="#0F1011"/>
<path d="M315.352 214.963C315.352 214.963 312.935 215.195 311.248 214.591C311.248 214.591 311.248 216.179 313.156 216.353C315.064 216.527 315.352 214.963 315.352 214.963Z" fill="white"/>
<path d="M321.727 205.289C321.899 218.294 323.154 223.345 323.154 223.345C323.154 223.345 329.323 215.904 330.254 208.023C331.127 200.636 325.707 196.219 322.027 195.362C308.038 192.105 307.067 202.29 307.067 202.29C307.971 205.765 323.242 207.92 323.242 207.92" fill="#0F1011"/>
<path d="M318.98 212.668C318.935 213.036 318.964 213.41 319.066 213.766C319.168 214.123 319.341 214.456 319.574 214.745C319.808 215.034 320.097 215.273 320.425 215.448C320.752 215.623 321.112 215.73 321.482 215.764C321.852 215.798 322.226 215.757 322.58 215.644C322.934 215.531 323.261 215.348 323.543 215.106C323.825 214.864 324.055 214.568 324.22 214.236C324.386 213.903 324.482 213.541 324.504 213.171C324.544 212.808 324.509 212.44 324.404 212.091C324.298 211.741 324.123 211.416 323.888 211.135C323.654 210.855 323.366 210.624 323.041 210.457C322.715 210.289 322.359 210.189 321.994 210.162C320.018 210.08 319.119 211.145 318.98 212.668Z" fill="#E98862"/>
<g opacity="0.15">
<path d="M312.768 213.419C312.822 213.418 312.874 213.399 312.914 213.364C312.955 213.329 312.982 213.281 312.99 213.228C312.999 213.175 312.988 213.121 312.959 213.075C312.931 213.029 312.887 212.995 312.836 212.979L311.511 212.558L312.461 210.498C312.473 210.471 312.48 210.442 312.482 210.413C312.483 210.383 312.478 210.353 312.468 210.325C312.458 210.297 312.442 210.272 312.422 210.25C312.402 210.228 312.378 210.21 312.351 210.198C312.324 210.185 312.294 210.179 312.265 210.177C312.235 210.176 312.205 210.181 312.177 210.191C312.149 210.202 312.124 210.218 312.102 210.238C312.08 210.258 312.063 210.283 312.051 210.31L310.994 212.602C310.98 212.631 310.973 212.662 310.973 212.694C310.973 212.726 310.98 212.758 310.992 212.787C311.005 212.816 311.024 212.842 311.048 212.864C311.072 212.885 311.1 212.901 311.13 212.911L312.701 213.407C312.722 213.414 312.745 213.418 312.768 213.419Z" fill="black"/>
</g>
<path d="M335.588 253.226C335.283 254.641 335.119 256.083 335.099 257.53C335.092 260.013 335.408 262.486 336.039 264.888C330.549 267.531 324.543 268.935 318.448 268.999C312.353 269.064 306.319 267.787 300.774 265.26C301.106 262.918 301.293 260.557 301.333 258.191L298.956 264.376C295.949 262.818 293.145 260.898 290.607 258.658L299.933 234.388C300.509 229.418 302.894 225.855 309.595 225.566C309.881 225.553 310.337 225.545 310.925 225.532C311.041 228.013 326.422 228.005 326.746 225.475C331.09 225.479 334.652 226.81 336.714 228.869C337.549 229.691 338.217 230.667 338.681 231.742L338.752 231.717L347.221 256.959C344.751 259.418 341.979 261.554 338.971 263.317L335.588 253.226Z" fill="#367CFF"/>
<path d="M310.924 225.535C311.041 228.015 312.391 231.66 316.559 231.935C322.112 232.3 326.42 228.005 326.747 225.476H326.733C321.264 225.476 314.111 225.485 310.924 225.535Z" fill="#E98862"/>
<path d="M223.348 181.356C217.784 186.127 211.053 189.34 203.84 190.667C196.627 191.994 189.19 191.387 182.289 188.909C182.25 187.551 182.088 186.199 181.804 184.87L180.661 188.281C177.558 187.015 174.621 185.374 171.918 183.394L178.64 163.361L178.71 163.382C179.175 162.308 179.843 161.334 180.678 160.513C182.74 158.45 186.301 157.123 190.646 157.119C190.969 159.645 206.351 159.657 206.467 157.177C207.055 157.185 207.511 157.193 207.796 157.21C214.493 157.495 216.878 161.063 217.459 166.032L223.348 181.356Z" fill="#0CBC8B"/>
<path d="M206.467 157.175C206.349 159.656 204.999 163.3 200.832 163.575C195.278 163.94 190.971 159.645 190.643 157.117H190.657C196.127 157.118 203.279 157.127 206.467 157.175Z" fill="#E98862"/>
<path d="M33.7145 224.74C33.7145 224.74 37.2062 222.892 36.4263 213.402L43.6401 212.066C43.6401 212.066 42.8296 220.575 46.4791 223.276L33.7145 224.74Z" fill="#E98862"/>
<g opacity="0.15">
<path d="M45.001 221.498L39.0082 216.922L43.715 216.873C43.8512 218.481 44.2874 220.05 45.001 221.498V221.498Z" fill="black"/>
</g>
<path d="M32.3333 209.722C32.8328 212.601 34.407 215.327 36.9515 216.257C39.9719 217.362 42.2112 217.436 45.6901 217.436C50.4425 217.436 50.2872 212.489 50.4189 207.504C50.5527 202.498 50.1543 197.127 48.2757 195.385C44.5268 191.903 33.5231 194.108 32.1846 199.932C31.4942 202.943 31.8583 206.981 32.3333 209.722Z" fill="#E98862"/>
<path d="M53.7156 193.312C53.7156 190.931 50.7473 187.03 42.8287 192.409L42.8204 192.414C40.7634 192.357 38.7081 192.581 36.7121 193.081C33.0908 194.163 28.5496 197.192 29.7146 204.54C31.0154 212.74 34.3804 214.929 36.0764 215.935C36.5088 216.192 36.6148 215.983 36.7631 215.504C37.234 213.734 37.5708 211.93 37.7707 210.11C38.0664 208.337 38.2006 206.542 38.1716 204.746C38.1716 203.95 38.1761 201.049 42.1325 201.017C44.3578 200.999 43.5262 201.087 45.9013 201.087C46.2397 201.087 46.5391 201.071 46.8145 201.046H46.8174C55.0152 201.049 53.7156 195.693 53.7156 193.312Z" fill="#0F1011"/>
<path d="M43.6298 207.504C43.9909 207.504 44.2837 207.212 44.2837 206.851C44.2837 206.49 43.9909 206.198 43.6298 206.198C43.2686 206.198 42.9758 206.49 42.9758 206.851C42.9758 207.212 43.2686 207.504 43.6298 207.504Z" fill="#0F1011"/>
<path d="M48.7914 207.081C49.1526 207.081 49.4453 206.789 49.4453 206.428C49.4453 206.068 49.1526 205.775 48.7914 205.775C48.4302 205.775 48.1375 206.068 48.1375 206.428C48.1375 206.789 48.4302 207.081 48.7914 207.081Z" fill="#0F1011"/>
<path d="M49.9249 205.037H49.9216L48.1884 205.015C48.1069 205.014 48.0289 204.982 47.9716 204.924C47.9143 204.866 47.8824 204.788 47.8829 204.706C47.8834 204.625 47.9163 204.547 47.9743 204.49C48.0322 204.433 48.1106 204.401 48.1921 204.401H48.1958L49.9286 204.423C50.0083 204.426 50.0835 204.46 50.1384 204.518C50.1934 204.575 50.2238 204.652 50.2234 204.732C50.2229 204.811 50.1915 204.887 50.1358 204.944C50.0802 205.001 50.0046 205.034 49.9249 205.037V205.037Z" fill="#0F1011"/>
<path d="M42.2175 205.667C42.1424 205.667 42.07 205.64 42.0139 205.59C41.9579 205.54 41.9221 205.471 41.9133 205.397C41.9044 205.322 41.9232 205.247 41.9661 205.186C42.0089 205.124 42.0729 205.08 42.1458 205.063L43.8546 204.652C43.8939 204.643 43.9346 204.641 43.9745 204.647C44.0144 204.654 44.0526 204.668 44.087 204.689C44.1215 204.71 44.1514 204.737 44.1752 204.77C44.199 204.802 44.2161 204.839 44.2255 204.878C44.235 204.918 44.2366 204.958 44.2303 204.998C44.2241 205.038 44.21 205.076 44.1889 205.11C44.1679 205.145 44.1403 205.175 44.1076 205.198C44.075 205.222 44.038 205.239 43.9988 205.249L42.29 205.659C42.2662 205.665 42.2419 205.668 42.2175 205.667Z" fill="#0F1011"/>
<path d="M40.2266 208.449C40.2673 208.817 40.2336 209.19 40.1275 209.544C40.0215 209.899 39.8452 210.229 39.6092 210.515C39.3732 210.8 39.0822 211.036 38.7535 211.207C38.4247 211.379 38.0648 211.483 37.6952 211.513C37.3255 211.543 36.9535 211.499 36.6011 211.384C36.2488 211.268 35.9233 211.083 35.6438 210.839C35.3644 210.596 35.1366 210.299 34.9741 209.966C34.8116 209.633 34.7177 209.271 34.6977 208.901C34.6617 208.538 34.6993 208.171 34.8083 207.822C34.9173 207.473 35.0956 207.15 35.3324 206.871C35.5692 206.593 35.8597 206.365 36.1867 206.2C36.5137 206.036 36.8704 205.939 37.2356 205.916C39.2124 205.852 40.1012 206.925 40.2266 208.449Z" fill="#E98862"/>
<g opacity="0.15">
<path d="M46.5342 210.473C46.4801 210.473 46.4279 210.454 46.3869 210.418C46.3459 210.383 46.319 210.334 46.311 210.281C46.3029 210.228 46.3144 210.173 46.3432 210.128C46.372 210.082 46.4163 210.048 46.4679 210.032L47.7986 209.625L46.8676 207.558C46.8431 207.503 46.8412 207.441 46.8625 207.385C46.8838 207.329 46.9264 207.284 46.9811 207.26C47.0357 207.235 47.0979 207.233 47.1539 207.254C47.2099 207.276 47.2551 207.318 47.2797 207.373L48.3151 209.675C48.3282 209.704 48.335 209.735 48.335 209.767C48.335 209.799 48.3281 209.831 48.3149 209.86C48.3017 209.889 48.2825 209.915 48.2584 209.936C48.2344 209.957 48.2061 209.973 48.1755 209.982L46.6017 210.465C46.5798 210.471 46.557 210.474 46.5342 210.473V210.473Z" fill="black"/>
</g>
<path d="M43.9325 211.992C43.9325 211.992 46.3478 212.247 48.0405 211.656C48.0405 211.656 48.0272 213.244 46.1159 213.4C44.2046 213.557 43.9325 211.992 43.9325 211.992Z" fill="white"/>
<path d="M58.4282 256.951L57.6703 254.983C57.6869 255.777 57.7159 256.53 57.7573 257.245C52.3775 259.544 46.5714 260.682 40.7201 260.583C34.8688 260.485 29.1044 259.153 23.8051 256.674C23.8668 255.926 23.9004 255.145 23.9004 254.322C23.8794 252.875 23.7171 251.434 23.4158 250.019L21.5645 255.537C18.5359 253.885 15.7266 251.86 13.2024 249.51L20.2475 228.509L20.3179 228.534C20.7834 227.459 21.4512 226.484 22.2852 225.661C24.3476 223.602 27.9094 222.275 32.2534 222.271C32.5806 224.797 47.9585 224.805 48.074 222.329C48.6621 222.337 49.1177 222.345 49.4035 222.358C56.1044 222.647 58.49 226.211 59.0656 231.18L66.9801 251.775C64.3493 253.839 61.4778 255.577 58.4282 256.951V256.951Z" fill="#262626"/>
<path d="M48.0757 222.327C47.9585 224.808 46.6083 228.453 42.4407 228.728C36.8869 229.093 32.5793 224.797 32.2526 222.269H32.2662C37.7359 222.269 44.8879 222.278 48.0757 222.327Z" fill="#E98862"/>
</g>
<defs>
<clipPath id="clip0_156_597">
<rect width="370" height="269" fill="white"/>
</clipPath>
</defs>
</svg>
